MA [46]15 Final Project T3am-3 - blogpost5
…
Attaching package: 'dplyr'

The following objects are masked from 'package:stats':

    filter, lag

The following objects are masked from 'package:base':

    intersect, setdiff, setequal, union

df <- readRDS("dataset/cleaned_disclosure.rds")
print(df)

# A tibble: 101,179 × 12
   CASE_NUMBER    CASE_STATUS RECEIVED_DATE       DECISION_DATE       VISA_CLASS
   <chr>          <chr>       <dttm>              <dttm>              <chr>     
 1 I-200-23355-5… Certified   2023-12-21 00:00:00 2023-12-29 00:00:00 H-1B      
 2 I-203-23355-5… Certified   2023-12-21 00:00:00 2023-12-29 00:00:00 E-3 Austr…
 3 I-200-23355-5… Certified   2023-12-21 00:00:00 2023-12-29 00:00:00 H-1B      
 4 I-200-23355-5… Certified   2023-12-21 00:00:00 2023-12-29 00:00:00 H-1B      
 5 I-200-23355-5… Certified   2023-12-21 00:00:00 2023-12-29 00:00:00 H-1B      
 6 I-200-23355-5… Certified   2023-12-21 00:00:00 2023-12-29 00:00:00 H-1B      
 7 I-200-23355-5… Certified   2023-12-21 00:00:00 2023-12-29 00:00:00 H-1B      
 8 I-200-23355-5… Certified   2023-12-21 00:00:00 2023-12-29 00:00:00 H-1B      
 9 I-200-23355-5… Certified   2023-12-21 00:00:00 2023-12-29 00:00:00 H-1B      
10 I-200-23355-5… Certified   2023-12-21 00:00:00 2023-12-29 00:00:00 H-1B      
# ℹ 101,169 more rows
# ℹ 7 more variables: JOB_TITLE <chr>, FULL_TIME_POSITION <chr>,
#   BEGIN_DATE <dttm>, END_DATE <dttm>, EMPLOYER_NAME <chr>,
#   EMPLOYER_STATE <chr>, AGENT_REPRESENTING_EMPLOYER <chr>

# rds for the other two projects
# df2 <- read_excel("dataset/worksite.xlsx")
# saveRDS(df2, "dataset/LCA_worksite.rds")

# df3 <- read_excel("dataset/appendix.xlsx")
# saveRDS(df3, "dataset/LCA_appendix.rds")

df2 <- readRDS("dataset/LCA_worksite.rds")

print(df2)

# A tibble: 149,649 × 22
   CASE_NUMBER        WORKSITE_WORKERS SECONDARY_ENTITY SECONDARY_ENTITY_BUSIN…¹
   <chr>                         <dbl> <chr>            <chr>                   
 1 I-200-19297-106681                1 N                <NA>                    
 2 I-200-19319-148860                1 N                <NA>                    
 3 I-200-19319-148860                1 N                <NA>                    
 4 I-200-19319-148860                1 Y                Acuity Eyecare Group    
 5 I-200-19319-149308                1 N                <NA>                    
 6 I-200-19323-154281                1 N                <NA>                    
 7 I-200-19345-192268                1 N                <NA>                    
 8 I-200-20007-237296                1 N                <NA>                    
 9 I-200-20007-237296                1 N                <NA>                    
10 I-200-20009-243900                1 Y                Florida Department of C…
# ℹ 149,639 more rows
# ℹ abbreviated name: ¹​SECONDARY_ENTITY_BUSINESS_NAME
# ℹ 18 more variables: WORKSITE_ADDRESS1 <chr>, WORKSITE_ADDRESS2 <chr>,
#   WORKSITE_CITY <chr>, WORKSITE_COUNTY <chr>, WORKSITE_STATE <chr>,
#   WORKSITE_POSTAL_CODE <dbl>, WAGE_RATE_OF_PAY_FROM <dbl>,
#   WAGE_RATE_OF_PAY_TO <dbl>, WAGE_UNIT_OF_PAY <chr>, PREVAILING_WAGE <dbl>,
#   PW_UNIT_OF_PAY <chr>, PW_TRACKING_NUMBER <chr>, PW_WAGE_LEVEL <chr>, …

df3 <- readRDS("dataset/appendix.rds")

print(df3)

# A tibble: 92 × 5
   CASE_NUMBER        APPX_A_NO_OF_EXEMPT_WORKERS APPX_A_NAME_OF_INSTITUTION    
   <chr>                                    <dbl> <chr>                         
 1 I-200-20353-968632                           1 The William Paterson Universi…
 2 I-200-21116-258512                           1 GOVERNORS STATE UNIVERISTY    
 3 I-200-22115-102220                           1 Lamar University              
 4 I-200-22126-145447                           1 California State University, …
 5 I-200-22164-272276                           1 Illinois Institute of Technol…
 6 I-200-22180-320955                           1 University of Missouri        
 7 I-200-22180-320965                           1 Columbia University           
 8 I-200-22180-320973                           1 Illinois Institute of Technol…
 9 I-200-22194-349007                           1 University of Missouri        
10 I-200-22214-390922                           1 Northeastern University       
# ℹ 82 more rows
# ℹ 2 more variables: APPX_A_FIELD_OF_STUDY <chr>, APPX_A_DATE_OF_DEGREE <dttm>
