MA [46]15 Final Project T3am-3 - Data
…
The following objects are masked from 'package:stats':

    filter, lag

The following objects are masked from 'package:base':

    intersect, setdiff, setequal, union

# run this to load the dataset from the rds
data <- readRDS(file = "dataset/cleaned_h1b_data.rds")
# your code here
data

# A tibble: 199 × 28
   Country Continent  FY97  FY98  FY99  FY00  FY01  FY02  FY03  FY04  FY05  FY06
   <chr>   <chr>     <dbl> <dbl> <dbl> <dbl> <dbl> <dbl> <dbl> <dbl> <dbl> <dbl>
 1 Algeria Africa       52    49    53    64    75    43    17    36    28    21
 2 Angola  Africa        0     0     2     2     2     4     6     8     5    10
 3 Benin   Africa       10     4     5     8    13     8     7    13     7     6
 4 Botswa… Africa        2     5     5     3     9     8    11    21    12    16
 5 Burkin… Africa        3     6     8     4     6    13    16    14    12    16
 6 Burundi Africa        1     1     1     1     0     0     1     0     2     1
 7 Cabo V… Africa       NA    NA    NA    NA    NA    NA    NA    NA    NA    NA
 8 Camero… Africa       36    50    62    59    80    79    64    68    63    77
 9 Centra… Africa        3     0     2     1     0     6     2     2     1     0
10 Chad    Africa        0     4     4     1     2     1     3     4     6    10
# ℹ 189 more rows
# ℹ 16 more variables: FY07 <dbl>, FY08 <dbl>, FY09 <dbl>, FY10 <dbl>,
#   FY11 <dbl>, FY12 <dbl>, FY13 <dbl>, FY14 <dbl>, FY15 <dbl>, FY16 <dbl>,
#   FY17 <dbl>, FY18 <dbl>, FY19 <dbl>, FY20 <dbl>, FY21 <dbl>, FY22 <dbl>
…
 [1] "Country"   "Continent" "FY97"      "FY98"      "FY99"      "FY00"     
 [7] "FY01"      "FY02"      "FY03"      "FY04"      "FY05"      "FY06"     
[13] "FY07"      "FY08"      "FY09"      "FY10"      "FY11"      "FY12"     
[19] "FY13"      "FY14"      "FY15"      "FY16"      "FY17"      "FY18"     
[25] "FY19"      "FY20"      "FY21"      "FY22"     

#names(df) <- new_names

The code below is to rename the columns to understandable years format.

colnames(h1b_country) <- c('Country','Continent','1997', '1998', '1999', '2000', '2001', '2002', '2003', '2004', '2005', '2006', '2007', '2008', '2009', '2010', '2011', '2012', '2013', '2014', '2015', '2016', '2017', '2018', '2019', '2020', '2021', '2022') 

h1b_country

# A tibble: 199 × 28
   Country     Continent `1997` `1998` `1999` `2000` `2001` `2002` `2003` `2004`
   <chr>       <chr>      <dbl>  <dbl>  <dbl>  <dbl>  <dbl>  <dbl>  <dbl>  <dbl>
 1 Algeria     Africa        52     49     53     64     75     43     17     36
 2 Angola      Africa         0      0      2      2      2      4      6      8
 3 Benin       Africa        10      4      5      8     13      8      7     13
 4 Botswana    Africa         2      5      5      3      9      8     11     21
 5 Burkina Fa… Africa         3      6      8      4      6     13     16     14
 6 Burundi     Africa         1      1      1      1      0      0      1      0
 7 Cabo Verde  Africa        NA     NA     NA     NA     NA     NA     NA     NA
 8 Cameroon    Africa        36     50     62     59     80     79     64     68
 9 Central Af… Africa         3      0      2      1      0      6      2      2
10 Chad        Africa         0      4      4      1      2      1      3      4
# ℹ 189 more rows
# ℹ 18 more variables: `2005` <dbl>, `2006` <dbl>, `2007` <dbl>, `2008` <dbl>,
#   `2009` <dbl>, `2010` <dbl>, `2011` <dbl>, `2012` <dbl>, `2013` <dbl>,
#   `2014` <dbl>, `2015` <dbl>, `2016` <dbl>, `2017` <dbl>, `2018` <dbl>,
#   `2019` <dbl>, `2020` <dbl>, `2021` <dbl>, `2022` <dbl>
…
  # Previously
  across(a:b, mean, na.rm = TRUE)

  # Now
  across(a:b, \(x) mean(x, na.rm = TRUE))

data_long <- pivot_longer(h1b_continent, cols = -Continent, names_to = "year", values_to = "count_h1b")

data_long

# A tibble: 182 × 3
   Continent year  count_h1b
   <chr>     <chr>     <dbl>
 1 Africa    1997       2518
 2 Africa    1998       2634
 3 Africa    1999       2835
 4 Africa    2000       3126
 5 Africa    2001       3808
 6 Africa    2002       2903
 7 Africa    2003       2456
 8 Africa    2004       3022
 9 Africa    2005       2794
10 Africa    2006       2886
# ℹ 172 more rows
…
