MA [46]15 Final Project T3am-3 – dataexp
…
 [1] "Country"   "Continent" "FY97"      "FY98"      "FY99"      "FY00"     
 [7] "FY01"      "FY02"      "FY03"      "FY04"      "FY05"      "FY06"     
[13] "FY07"      "FY08"      "FY09"      "FY10"      "FY11"      "FY12"     
[19] "FY13"      "FY14"      "FY15"      "FY16"      "FY17"      "FY18"     
[25] "FY19"      "FY20"      "FY21"      "FY22"     

#names(df) <- new_names

colnames(h1b_country) <- c('Country','Continent','1997', '1998', '1999', '2000', '2001', '2002', '2003', '2004', '2005', '2006', '2007', '2008', '2009', '2010', '2011', '2012', '2013', '2014', '2015', '2016', '2017', '2018', '2019', '2020', '2021', '2022') 

h1b_country

# A tibble: 199 × 28
   Country     Continent `1997` `1998` `1999` `2000` `2001` `2002` `2003` `2004`
   <chr>       <chr>      <dbl>  <dbl>  <dbl>  <dbl>  <dbl>  <dbl>  <dbl>  <dbl>
 1 Algeria     Africa        52     49     53     64     75     43     17     36
 2 Angola      Africa         0      0      2      2      2      4      6      8
 3 Benin       Africa        10      4      5      8     13      8      7     13
 4 Botswana    Africa         2      5      5      3      9      8     11     21
 5 Burkina Fa… Africa         3      6      8      4      6     13     16     14
 6 Burundi     Africa         1      1      1      1      0      0      1      0
 7 Cabo Verde  Africa        NA     NA     NA     NA     NA     NA     NA     NA
 8 Cameroon    Africa        36     50     62     59     80     79     64     68
 9 Central Af… Africa         3      0      2      1      0      6      2      2
10 Chad        Africa         0      4      4      1      2      1      3      4
# ℹ 189 more rows
# ℹ 18 more variables: `2005` <dbl>, `2006` <dbl>, `2007` <dbl>, `2008` <dbl>,
#   `2009` <dbl>, `2010` <dbl>, `2011` <dbl>, `2012` <dbl>, `2013` <dbl>,
#   `2014` <dbl>, `2015` <dbl>, `2016` <dbl>, `2017` <dbl>, `2018` <dbl>,
#   `2019` <dbl>, `2020` <dbl>, `2021` <dbl>, `2022` <dbl>
…
  # Previously
  across(a:b, mean, na.rm = TRUE)

  # Now
  across(a:b, \(x) mean(x, na.rm = TRUE))

library(tidyr)
data_long <- pivot_longer(h1b_continent, cols = -Continent, names_to = "year", values_to = "count_h1b")

data_long

# A tibble: 182 × 3
   Continent year  count_h1b
   <chr>     <chr>     <dbl>
 1 Africa    1997       2518
 2 Africa    1998       2634
 3 Africa    1999       2835
 4 Africa    2000       3126
 5 Africa    2001       3808
 6 Africa    2002       2903
 7 Africa    2003       2456
 8 Africa    2004       3022
 9 Africa    2005       2794
10 Africa    2006       2886
# ℹ 172 more rows
…
h1b_continent <- h1b_country |>
  filter(Continent == 'Unknown') |>
  select(-Continent)

# library(tidyr)
unknown_longer <- pivot_longer(h1b_continent, cols = -Country, names_to = "year", values_to = "count_h1b")
# 
unknown_longer

# A tibble: 26 × 3
   Country        year  count_h1b
   <chr>          <chr>     <dbl>
 1 No Nationality 1997        209
 2 No Nationality 1998         97
 3 No Nationality 1999         67
 4 No Nationality 2000         56
 5 No Nationality 2001         52
 6 No Nationality 2002         15
 7 No Nationality 2003          7
 8 No Nationality 2004         15
 9 No Nationality 2005         13
10 No Nationality 2006         14
# ℹ 16 more rows
…
print(piecharts_oceania)

list()

h1b_other <- h1b_country |>
  filter(Continent == 'Unknown') |>
  select(-Continent)
  #summarize(across(where(is.numeric), sum, na.rm = TRUE))

data_long_other <- pivot_longer(h1b_other, cols=-Country, names_to = "year", values_to = "count_h1b")

data_long_other

# A tibble: 26 × 3
   Country        year  count_h1b
   <chr>          <chr>     <dbl>
 1 No Nationality 1997        209
 2 No Nationality 1998         97
 3 No Nationality 1999         67
 4 No Nationality 2000         56
 5 No Nationality 2001         52
 6 No Nationality 2002         15
 7 No Nationality 2003          7
 8 No Nationality 2004         15
 9 No Nationality 2005         13
10 No Nationality 2006         14
# ℹ 16 more rows
…
