MA [46]15 Final Project T3am-3 – h1b_wage_vs_econ
…
  df <- df %>%
    filter(CLASS_OF_ADMISSION == 'H-1B', CASE_STATUS == 'Certified') %>%
    select(all_of(relevant_columns)) %>%
    dummy_cols("FOREIGN_WORKER_EDUCATION", remove_selected_columns = TRUE)
  df$Country_Standardized <- standardize_country_names(df$COUNTRY_OF_CITIZENSHIP)
  df <- select(df, -COUNTRY_OF_CITIZENSHIP, -FOREIGN_WORKER_EDUCATION_Other)
  return (df)
}
relevant_columns <- c("WAGE_OFFER_FROM", "COUNTRY_OF_CITIZENSHIP", "FOREIGN_WORKER_EDUCATION")
fy22_cleaned <- process_data(fy22, relevant_columns)
fy23_cleaned <- process_data(fy23, relevant_columns)
h1b_stacked <- rbind(fy22_cleaned, fy23_cleaned)
fy22_cleaned

# A tibble: 27,351 × 8
   WAGE_OFFER_FROM `FOREIGN_WORKER_EDUCATION_Associate's` FOREIGN_WORKER_EDUCA…¹
             <dbl>                                  <int>                  <int>
 1          163000                                      0                      1
 2          180941                                      0                      1
 3          325000                                      0                      0
 4           79186                                      0                      0
 5           96574                                      0                      1
 6          128794                                      0                      0
 7           74755                                      0                      0
 8           65998                                      1                      0
 9          150000                                      0                      0
10          149022                                      0                      0
# ℹ 27,341 more rows
# ℹ abbreviated name: ¹​`FOREIGN_WORKER_EDUCATION_Bachelor's`
# ℹ 5 more variables: FOREIGN_WORKER_EDUCATION_Doctorate <int>,
#   `FOREIGN_WORKER_EDUCATION_High School` <int>,
#   `FOREIGN_WORKER_EDUCATION_Master's` <int>,
#   FOREIGN_WORKER_EDUCATION_None <int>, Country_Standardized <chr>

fy23_cleaned

# A tibble: 32,875 × 8
   WAGE_OFFER_FROM `FOREIGN_WORKER_EDUCATION_Associate's` FOREIGN_WORKER_EDUCA…¹
             <dbl>                                  <int>                  <int>
 1          161803                                      0                      0
 2          123223                                      0                      1
 3          185848                                      0                      1
 4          115445                                      0                      0
 5          141378                                      0                      0
 6           46259                                      0                      1
 7           73840                                      0                      0
 8          117520                                      0                      0
 9           58656                                      0                      0
10          107590                                      0                      1
# ℹ 32,865 more rows
# ℹ abbreviated name: ¹​`FOREIGN_WORKER_EDUCATION_Bachelor's`
# ℹ 5 more variables: FOREIGN_WORKER_EDUCATION_Doctorate <int>,
#   `FOREIGN_WORKER_EDUCATION_High School` <int>,
#   `FOREIGN_WORKER_EDUCATION_Master's` <int>,
#   FOREIGN_WORKER_EDUCATION_None <int>, Country_Standardized <chr>

h1b_stacked

# A tibble: 60,226 × 8
   WAGE_OFFER_FROM `FOREIGN_WORKER_EDUCATION_Associate's` FOREIGN_WORKER_EDUCA…¹
             <dbl>                                  <int>                  <int>
 1          163000                                      0                      1
 2          180941                                      0                      1
 3          325000                                      0                      0
 4           79186                                      0                      0
 5           96574                                      0                      1
 6          128794                                      0                      0
 7           74755                                      0                      0
 8           65998                                      1                      0
 9          150000                                      0                      0
10          149022                                      0                      0
# ℹ 60,216 more rows
# ℹ abbreviated name: ¹​`FOREIGN_WORKER_EDUCATION_Bachelor's`
# ℹ 5 more variables: FOREIGN_WORKER_EDUCATION_Doctorate <int>,
#   `FOREIGN_WORKER_EDUCATION_High School` <int>,
#   `FOREIGN_WORKER_EDUCATION_Master's` <int>,
#   FOREIGN_WORKER_EDUCATION_None <int>, Country_Standardized <chr>
…
  }
  df_wide <- df_wide %>%
    mutate(Country_Standardized = standardize_country_names(Country)) %>%
    select(Country_Standardized, Average_2022_2023)
  return(df_wide)
}
imf_gdpc_usd <- imf_gdpc_usd_raw %>%
  slice(1:(nrow(.)-34)) %>%
  backfill_leftward()
imf_unemployment <- imf_unemployment_raw %>%
  slice(1:(nrow(.)-6)) %>%
  backfill_leftward()
imf_gdpc_usd

# A tibble: 196 × 2
   Country_Standardized Average_2022_2023
   <chr>                            <dbl>
 1 afghanistan                       422.
 2 albania                          7307.
 3 algeria                          5153.
 4 andorra                         42582.
 5 angola                           3003.
 6 antigua and barbuda             18282.
 7 argentina                       13832.
 8 armenia                          7370.
 9 aruba                           34889.
10 australia                       65505.
# ℹ 186 more rows

imf_unemployment

# A tibble: 114 × 2
   Country_Standardized Average_2022_2023
   <chr>                            <dbl>
 1 albania                          11.0 
 2 algeria                          11.4 
 3 andorra                           1.8 
 4 argentina                         6.7 
 5 armenia                          12.8 
 6 aruba                             6.15
 7 australia                         3.7 
 8 austria                           4.95
 9 azerbaijan                        5.6 
10 bahamas                           9.8 
# ℹ 104 more rows

Mutate IMF columns into H1b

h1b_final <- h1b_stacked %>%
  left_join(imf_gdpc_usd, by = "Country_Standardized") %>%
  left_join(imf_unemployment, by = "Country_Standardized") %>%
  na.omit() %>%
  setNames(c("Wage", "Associate's", "Bachelor's", "Doctorate", "High School", "Master's", "None", "Country", "GDP per capita", "Unemployment"))
h1b_final

# A tibble: 14,973 × 10
     Wage `Associate's` `Bachelor's` Doctorate `High School` `Master's`  None
    <dbl>         <int>        <int>     <int>         <int>      <int> <int>
 1 163000             0            1         0             0          0     0
 2 325000             0            0         1             0          0     0
 3 128794             0            0         0             0          1     0
 4  74755             0            0         1             0          0     0
 5 150000             0            0         1             0          0     0
 6  98577             0            1         0             0          0     0
 7 120000             0            1         0             0          0     0
 8 175000             0            0         0             0          1     0
 9 213169             0            1         0             0          0     0
10 150000             0            0         0             0          1     0
# ℹ 14,963 more rows
# ℹ 3 more variables: Country <chr>, `GDP per capita` <dbl>, Unemployment <dbl>
…
