MA [46]15 Final Project T3am-3 - blogpost6
…
final_perm_df <- select(perm_df, "CASE_NUMBER", "CASE_STATUS", "RECEIVED_DATE", "DECISION_DATE", "EMPLOYER_NAME",
                        "EMPLOYER_NUM_EMPLOYEES", "AGENT_ATTORNEY_FIRM_NAME", "PW_WAGE", "PW_SKILL_LEVEL", "WORKSITE_STATE", "JOB_TITLE", "PW_UNIT_OF_PAY", "WAGE_OFFER_FROM", "WAGE_OFFER_UNIT_OF_PAY",
                        , "MINIMUM_EDUCATION", "REQUIRED_EXPERIENCE", "COUNTRY_OF_CITIZENSHIP", "CLASS_OF_ADMISSION"
                        )

final_perm_df <- final_perm_df %>%
  filter(PW_UNIT_OF_PAY == "Year")
final_perm_df

# A tibble: 24,605 × 18
   CASE_NUMBER CASE_STATUS RECEIVED_DATE       DECISION_DATE       EMPLOYER_NAME
   <chr>       <chr>       <dttm>              <dttm>              <chr>        
 1 A-22256-20… Certified   2022-09-22 00:00:00 2023-10-02 00:00:00 Siser North …
 2 A-22271-30… Certified   2022-10-24 00:00:00 2023-10-02 00:00:00 Blend360 LLC 
 3 A-22272-30… Certified   2022-10-24 00:00:00 2023-10-02 00:00:00 Blend360 LLC 
 4 A-22185-82… Certified   2022-07-26 00:00:00 2023-10-02 00:00:00 AMDOCS INC.  
 5 A-22189-85… Certified   2022-11-16 00:00:00 2023-10-02 00:00:00 VMWARE, INC. 
 6 A-22284-37… Certified   2022-11-07 00:00:00 2023-10-02 00:00:00 META PLATFOR…
 7 A-22286-39… Certified   2022-11-10 00:00:00 2023-10-02 00:00:00 NB VENTURES …
 8 A-22290-40… Certified   2022-11-04 00:00:00 2023-10-02 00:00:00 META PLATFOR…
 9 A-22307-51… Certified   2022-11-10 00:00:00 2023-10-02 00:00:00 OCEAN BLUE E…
10 A-22298-45… Withdrawn   2023-01-30 00:00:00 2023-10-02 00:00:00 INTEL CORPOR…
# ℹ 24,595 more rows
# ℹ 13 more variables: EMPLOYER_NUM_EMPLOYEES <dbl>,
#   AGENT_ATTORNEY_FIRM_NAME <chr>, PW_WAGE <dbl>, PW_SKILL_LEVEL <chr>,
#   WORKSITE_STATE <chr>, JOB_TITLE <chr>, PW_UNIT_OF_PAY <chr>,
#   WAGE_OFFER_FROM <dbl>, WAGE_OFFER_UNIT_OF_PAY <chr>,
#   MINIMUM_EDUCATION <chr>, REQUIRED_EXPERIENCE <chr>,
#   COUNTRY_OF_CITIZENSHIP <chr>, CLASS_OF_ADMISSION <chr>
…
variable analysis

# Extract model coefficients and sort by absolute value
importance <- tidy(model_fit$fit) %>%
  filter(term != "(Intercept)") %>%
  arrange(desc(abs(estimate)))

print(importance)

# A tibble: 64 × 5
   term                         estimate std.error statistic   p.value
   <chr>                           <dbl>     <dbl>     <dbl>     <dbl>
 1 MINIMUM_EDUCATION_Other       114956.     3654.     31.5  5.08e-212
 2 MINIMUM_EDUCATION_Doctorate    68236.     3864.     17.7  2.94e- 69
 3 MINIMUM_EDUCATION_Master.s     53483.     3067.     17.4  1.32e- 67
 4 WORKSITE_STATE_WEST.VIRGINIA   52379.    13207.      3.97 7.34e-  5
 5 MINIMUM_EDUCATION_Bachelor.s   48195.     3061.     15.7  1.60e- 55
 6 WORKSITE_STATE_GUAM           -46258.    22150.     -2.09 3.68e-  2
 7 PW_SKILL_LEVEL_Level.IV        44773.      827.     54.1  0        
 8 WORKSITE_STATE_CALIFORNIA      37350.     4041.      9.24 2.66e- 20
 9 WORKSITE_STATE_WASHINGTON      32842.     4106.      8.00 1.33e- 15
10 PW_SKILL_LEVEL_N.A             29261.     1563.     18.7  1.47e- 77
# ℹ 54 more rows
…
# Calculate and add prediction intervals to the prediction frame
interval_df <- predict(fitted_model, new_data = test_data, type = "pred_int", level = 0.95)

Warning: ! There are new levels in a factor: NA
! There are new levels in a factor: NA

# print(interval_df)

print(test_data)

# A tibble: 4,921 × 18
   CASE_NUMBER CASE_STATUS RECEIVED_DATE       DECISION_DATE       EMPLOYER_NAME
   <chr>       <chr>       <dttm>              <dttm>              <chr>        
 1 A-22256-20… Certified   2022-09-22 00:00:00 2023-10-02 00:00:00 Siser North …
 2 A-22284-37… Certified   2022-11-07 00:00:00 2023-10-02 00:00:00 META PLATFOR…
 3 A-22290-40… Certified   2022-11-04 00:00:00 2023-10-02 00:00:00 META PLATFOR…
 4 A-22200-90… Denied      2022-07-07 00:00:00 2023-10-02 00:00:00 AMPARTS, LP  
 5 A-22276-32… Certified   2022-11-15 00:00:00 2023-10-02 00:00:00 WAVESTONE    
 6 A-22308-52… Certified   2022-11-18 00:00:00 2023-10-02 00:00:00 GOOGLE LLC   
 7 A-22223-04… Certified   2022-10-24 00:00:00 2023-10-02 00:00:00 CARGILL, INC…
 8 A-22313-54… Certified   2022-11-18 00:00:00 2023-10-02 00:00:00 CITADEL AMER…
 9 A-22194-87… Certified   2022-07-25 00:00:00 2023-10-02 00:00:00 AILES TECHNO…
10 A-22187-84… Certified   2022-11-21 00:00:00 2023-10-02 00:00:00 WELLS FARGO …
# ℹ 4,911 more rows
# ℹ 13 more variables: EMPLOYER_NUM_EMPLOYEES <dbl>,
#   AGENT_ATTORNEY_FIRM_NAME <chr>, PW_WAGE <dbl>, PW_SKILL_LEVEL <chr>,
#   WORKSITE_STATE <chr>, JOB_TITLE <chr>, PW_UNIT_OF_PAY <chr>,
#   WAGE_OFFER_FROM <dbl>, WAGE_OFFER_UNIT_OF_PAY <chr>,
#   MINIMUM_EDUCATION <chr>, REQUIRED_EXPERIENCE <chr>,
#   COUNTRY_OF_CITIZENSHIP <chr>, CLASS_OF_ADMISSION <chr>
…
