MA [46]15 Final Project T3am-3 – perm_data
…
fy19_relevant

# A tibble: 67,145 × 10
   CASE_NUMBER   CASE_STATUS       DECISION_DATE EMPLOYER_NAME   WAGE_OFFER_FROM
   <chr>         <chr>             <date>        <chr>                     <dbl>
 1 A-17117-30982 Certified-Expired 2018-10-01    Precision, Inc.          83000 
 2 A-17214-71267 Certified-Expired 2018-10-01    AT&T SERVICES,…         143219 
 3 A-17279-95946 Certified-Expired 2018-10-01    SOFTWARE PEOPL…          59322 
 4 A-17314-09382 Certified-Expired 2018-10-01    Procura, LLC            111218 
 5 A-18004-27794 Certified-Expired 2018-10-01    ZENITH INSURAN…         110312.
 6 A-18019-33542 Certified-Expired 2018-10-01    NEW ENGLAND IT…          85238 
 7 A-18031-37790 Certified-Expired 2018-10-01    Frontier Strat…          97000 
 8 A-18032-38198 Certified-Expired 2018-10-01    VINTECH SOLUTI…          83470 
 9 A-18038-41047 Denied            2018-10-01    NAZTEC INTERNA…          95618 
10 A-18039-41426 Certified-Expired 2018-10-01    ONWARD TECHNOL…         108098 
# ℹ 67,135 more rows
# ℹ 5 more variables: COUNTRY_OF_CITIZENSHIP <chr>,
#   FOREIGN_WORKER_EDUCATION <chr>, month <dbl>, year <dbl>, year_month <chr>
…
combined_19_23

# A tibble: 339,497 × 10
   CASE_NUMBER   CASE_STATUS       DECISION_DATE EMPLOYER_NAME   WAGE_OFFER_FROM
   <chr>         <chr>             <date>        <chr>                     <dbl>
 1 A-17117-30982 Certified-Expired 2018-10-01    Precision, Inc.          83000 
 2 A-17214-71267 Certified-Expired 2018-10-01    AT&T SERVICES,…         143219 
 3 A-17279-95946 Certified-Expired 2018-10-01    SOFTWARE PEOPL…          59322 
 4 A-17314-09382 Certified-Expired 2018-10-01    Procura, LLC            111218 
 5 A-18004-27794 Certified-Expired 2018-10-01    ZENITH INSURAN…         110312.
 6 A-18019-33542 Certified-Expired 2018-10-01    NEW ENGLAND IT…          85238 
 7 A-18031-37790 Certified-Expired 2018-10-01    Frontier Strat…          97000 
 8 A-18032-38198 Certified-Expired 2018-10-01    VINTECH SOLUTI…          83470 
 9 A-18038-41047 Denied            2018-10-01    NAZTEC INTERNA…          95618 
10 A-18039-41426 Certified-Expired 2018-10-01    ONWARD TECHNOL…         108098 
# ℹ 339,487 more rows
# ℹ 5 more variables: COUNTRY_OF_CITIZENSHIP <chr>,
#   FOREIGN_WORKER_EDUCATION <chr>, month <dbl>, year <dbl>, year_month <chr>
…
# Step 2: Calculate the number of certified or certified-expired applicants for each country
top5_certified <- combined_19_23 %>%
  filter(COUNTRY_OF_CITIZENSHIP %in% top5_countries$COUNTRY_OF_CITIZENSHIP)|>
  filter(CASE_STATUS %in% c("Certified", "Certified-Expired")) %>%
  group_by(COUNTRY_OF_CITIZENSHIP, year_month) %>%
  summarise(certified_applicants = n())

`summarise()` has grouped output by 'COUNTRY_OF_CITIZENSHIP'. You can override
using the `.groups` argument.

merged_data <- left_join(top5_applicants, top5_certified, by = c("COUNTRY_OF_CITIZENSHIP", "year_month"))

merged_data

# A tibble: 300 × 4
# Groups:   COUNTRY_OF_CITIZENSHIP [5]
   COUNTRY_OF_CITIZENSHIP year_month total_applicants certified_applicants
   <chr>                  <chr>                 <int>                <int>
 1 CANADA                 2018-10                 134                  122
 2 CANADA                 2018-11                  79                   78
 3 CANADA                 2018-12                  62                   52
 4 CANADA                 2019-1                   69                   64
 5 CANADA                 2019-10                 125                  122
 6 CANADA                 2019-11                  81                   74
 7 CANADA                 2019-12                  62                   53
 8 CANADA                 2019-2                   98                   87
 9 CANADA                 2019-3                  173                  167
10 CANADA                 2019-4                  190                  185
# ℹ 290 more rows
…
#Now, look at correlation between education level and wage

combined_19_23

# A tibble: 339,497 × 10
   CASE_NUMBER   CASE_STATUS       DECISION_DATE EMPLOYER_NAME   WAGE_OFFER_FROM
   <chr>         <chr>             <date>        <chr>                     <dbl>
 1 A-17117-30982 Certified-Expired 2018-10-01    Precision, Inc.          83000 
 2 A-17214-71267 Certified-Expired 2018-10-01    AT&T SERVICES,…         143219 
 3 A-17279-95946 Certified-Expired 2018-10-01    SOFTWARE PEOPL…          59322 
 4 A-17314-09382 Certified-Expired 2018-10-01    Procura, LLC            111218 
 5 A-18004-27794 Certified-Expired 2018-10-01    ZENITH INSURAN…         110312.
 6 A-18019-33542 Certified-Expired 2018-10-01    NEW ENGLAND IT…          85238 
 7 A-18031-37790 Certified-Expired 2018-10-01    Frontier Strat…          97000 
 8 A-18032-38198 Certified-Expired 2018-10-01    VINTECH SOLUTI…          83470 
 9 A-18038-41047 Denied            2018-10-01    NAZTEC INTERNA…          95618 
10 A-18039-41426 Certified-Expired 2018-10-01    ONWARD TECHNOL…         108098 
# ℹ 339,487 more rows
# ℹ 5 more variables: COUNTRY_OF_CITIZENSHIP <chr>,
#   FOREIGN_WORKER_EDUCATION <chr>, month <dbl>, year <dbl>, year_month <chr>
…
combined_19_23

# A tibble: 339,497 × 10
   CASE_NUMBER   CASE_STATUS       DECISION_DATE EMPLOYER_NAME   WAGE_OFFER_FROM
   <chr>         <chr>             <date>        <chr>                     <dbl>
 1 A-17117-30982 Certified-Expired 2018-10-01    Precision, Inc.          83000 
 2 A-17214-71267 Certified-Expired 2018-10-01    AT&T SERVICES,…         143219 
 3 A-17279-95946 Certified-Expired 2018-10-01    SOFTWARE PEOPL…          59322 
 4 A-17314-09382 Certified-Expired 2018-10-01    Procura, LLC            111218 
 5 A-18004-27794 Certified-Expired 2018-10-01    ZENITH INSURAN…         110312.
 6 A-18019-33542 Certified-Expired 2018-10-01    NEW ENGLAND IT…          85238 
 7 A-18031-37790 Certified-Expired 2018-10-01    Frontier Strat…          97000 
 8 A-18032-38198 Certified-Expired 2018-10-01    VINTECH SOLUTI…          83470 
 9 A-18038-41047 Denied            2018-10-01    NAZTEC INTERNA…          95618 
10 A-18039-41426 Certified-Expired 2018-10-01    ONWARD TECHNOL…         108098 
# ℹ 339,487 more rows
# ℹ 5 more variables: COUNTRY_OF_CITIZENSHIP <chr>,
#   FOREIGN_WORKER_EDUCATION <chr>, month <dbl>, year <dbl>, year_month <chr>
…
