MA [46]15 Final Project T3am-3 - blog-post-4
…
Attaching package: 'dplyr'

The following objects are masked from 'package:stats':

    filter, lag

The following objects are masked from 'package:base':

    intersect, setdiff, setequal, union

df <- readRDS("dataset/cleaned_disclosure.rds")
print(df)

# A tibble: 101,179 × 12
   CASE_NUMBER    CASE_STATUS RECEIVED_DATE       DECISION_DATE       VISA_CLASS
   <chr>          <chr>       <dttm>              <dttm>              <chr>     
 1 I-200-23355-5… Certified   2023-12-21 00:00:00 2023-12-29 00:00:00 H-1B      
 2 I-203-23355-5… Certified   2023-12-21 00:00:00 2023-12-29 00:00:00 E-3 Austr…
 3 I-200-23355-5… Certified   2023-12-21 00:00:00 2023-12-29 00:00:00 H-1B      
 4 I-200-23355-5… Certified   2023-12-21 00:00:00 2023-12-29 00:00:00 H-1B      
 5 I-200-23355-5… Certified   2023-12-21 00:00:00 2023-12-29 00:00:00 H-1B      
 6 I-200-23355-5… Certified   2023-12-21 00:00:00 2023-12-29 00:00:00 H-1B      
 7 I-200-23355-5… Certified   2023-12-21 00:00:00 2023-12-29 00:00:00 H-1B      
 8 I-200-23355-5… Certified   2023-12-21 00:00:00 2023-12-29 00:00:00 H-1B      
 9 I-200-23355-5… Certified   2023-12-21 00:00:00 2023-12-29 00:00:00 H-1B      
10 I-200-23355-5… Certified   2023-12-21 00:00:00 2023-12-29 00:00:00 H-1B      
# ℹ 101,169 more rows
# ℹ 7 more variables: JOB_TITLE <chr>, FULL_TIME_POSITION <chr>,
#   BEGIN_DATE <dttm>, END_DATE <dttm>, EMPLOYER_NAME <chr>,
#   EMPLOYER_STATE <chr>, AGENT_REPRESENTING_EMPLOYER <chr>
…
